[
	{ 
		"id": 1,
		"value": "<1",
		"label": "Less than a year"
	},
	{ 
		"id": 2,
		"value": "1-2",
		"label": "1-2 years"
	},
	{ 
		"id": 3,
		"value": "2-5",
		"label": "3 years"
	},
	{ 
		"id": 4,
		"value": "5-10",
		"label": "5-10 years"
	},
	{ 
		"id": 5,
		"value": "10-15",
		"label": "10-15 years"
	},
	{ 
		"id": 6,
		"value": "15-20",
		"label": "15-20 years"
	},
	{ 
		"id": 7,
		"value": "20-25",
		"label": "20-25 years"
	},
	{ 
		"id": 8,
		"value": "25-30",
		"label": "25-30 years"
	},
	{ 
		"id": 9,
		"value": "30-35",
		"label": "30-35 years"
	},
	{ 
		"id": 10,
		"value": "35-40",
		"label": "35-40 years"
	},
	{ 
		"id": 11,
		"value": "40-45",
		"label": "40-45 years"
	},
	{ 
		"id": 12,
		"value": "45-50",
		"label": "45-50 years"
	},
	{ 
		"id": 13,
		"value": "50<",
		"label": "More than 50 years"
	}
]